{
  "name": "el",
  "modes": [
    {
      "name": "Main",
      "keys": [
        {
          "character": ";",
          "x": 0.0,
          "y": 0.0,
          "w": 1.0
        },
        {
          "character": "ς",
          "x": 1.0,
          "y": 0.0,
          "w": 1.0
        },
        {
          "character": "ε",
          "x": 2.0,
          "y": 0.0,
          "w": 1.0
        },
        {
          "character": "ρ",
          "x": 3.0,
          "y": 0.0,
          "w": 1.0
        },
        {
          "character": "τ",
          "x": 4.0,
          "y": 0.0,
          "w": 1.0
        },
        {
          "character": "υ",
          "x": 5.0,
          "y": 0.0,
          "w": 1.0
        },
        {
          "character": "θ",
          "x": 6.0,
          "y": 0.0,
          "w": 1.0
        },
        {
          "character": "ι",
          "x": 7.0,
          "y": 0.0,
          "w": 1.0
        },
        {
          "character": "ο",
          "x": 8.0,
          "y": 0.0,
          "w": 1.0
        },
        {
          "character": "π",
          "x": 9.0,
          "y": 0.0,
          "w": 1.0
        },
        {
          "character": "α",
          "x": 0.5,
          "y": 1.0,
          "w": 1.0
        },
        {
          "character": "σ",
          "x": 1.5,
          "y": 1.0,
          "w": 1.0
        },
        {
          "character": "δ",
          "x": 2.5,
          "y": 1.0,
          "w": 1.0
        },
        {
          "character": "φ",
          "x": 3.5,
          "y": 1.0,
          "w": 1.0
        },
        {
          "character": "γ",
          "x": 4.5,
          "y": 1.0,
          "w": 1.0
        },
        {
          "character": "η",
          "x": 5.5,
          "y": 1.0,
          "w": 1.0
        },
        {
          "character": "ξ",
          "x": 6.5,
          "y": 1.0,
          "w": 1.0
        },
        {
          "character": "κ",
          "x": 7.5,
          "y": 1.0,
          "w": 1.0
        },
        {
          "character": "λ",
          "x": 8.5,
          "y": 1.0,
          "w": 1.0
        },
        {
          "label": "⇧",
          "x": 0.0,
          "y": 2.0,
          "w": 1.5,
          "target": "Capitals"
        },
        {
          "character": "ζ",
          "x": 1.5,
          "y": 2.0,
          "w": 1.0
        },
        {
          "character": "χ",
          "x": 2.5,
          "y": 2.0,
          "w": 1.0
        },
        {
          "character": "ψ",
          "x": 3.5,
          "y": 2.0,
          "w": 1.0
        },
        {
          "character": "ω",
          "x": 4.5,
          "y": 2.0,
          "w": 1.0
        },
        {
          "character": "β",
          "x": 5.5,
          "y": 2.0,
          "w": 1.0
        },
        {
          "character": "ν",
          "x": 6.5,
          "y": 2.0,
          "w": 1.0
        },
        {
          "character": "μ",
          "x": 7.5,
          "y": 2.0,
          "w": 1.0
        },
        {
          "label": "⌫",
          "keyval": 65288,
          "x": 8.5,
          "y": 2.0,
          "w": 1.5
        },
        {
          "label": "?123",
          "x": 0.0,
          "y": 3.0,
          "w": 1.5,
          "target": "Numbers"
        },
        {
          "character": ",",
          "x": 1.5,
          "y": 3.0,
          "w": 1.0
        },
        {
          "label": "☺",
          "target": "Emoji",
          "x": 2.5,
          "y": 3.0,
          "w": 1.0
        },
        {
          "character": " ",
          "x": 3.5,
          "y": 3.0,
          "w": 4.0
        },
        {
          "character": ".",
          "x": 7.5,
          "y": 3.0,
          "w": 1.0
        },
        {
          "label": "↵",
          "character": "\n",
          "x": 8.5,
          "y": 3.0,
          "w": 1.5
        }
      ]
    },
    {
      "name": "Capitals",
      "keys": [
        {
          "character": ";",
          "x": 0.0,
          "y": 0.0,
          "w": 1.0
        },
        {
          "character": "Σ",
          "x": 1.0,
          "y": 0.0,
          "w": 1.0
        },
        {
          "character": "Ε",
          "x": 2.0,
          "y": 0.0,
          "w": 1.0
        },
        {
          "character": "Ρ",
          "x": 3.0,
          "y": 0.0,
          "w": 1.0
        },
        {
          "character": "Τ",
          "x": 4.0,
          "y": 0.0,
          "w": 1.0
        },
        {
          "character": "Υ",
          "x": 5.0,
          "y": 0.0,
          "w": 1.0
        },
        {
          "character": "Θ",
          "x": 6.0,
          "y": 0.0,
          "w": 1.0
        },
        {
          "character": "Ι",
          "x": 7.0,
          "y": 0.0,
          "w": 1.0
        },
        {
          "character": "Ο",
          "x": 8.0,
          "y": 0.0,
          "w": 1.0
        },
        {
          "character": "Π",
          "x": 9.0,
          "y": 0.0,
          "w": 1.0
        },
        {
          "character": "Α",
          "x": 0.5,
          "y": 1.0,
          "w": 1.0
        },
        {
          "character": "Σ",
          "x": 1.5,
          "y": 1.0,
          "w": 1.0
        },
        {
          "character": "Δ",
          "x": 2.5,
          "y": 1.0,
          "w": 1.0
        },
        {
          "character": "Φ",
          "x": 3.5,
          "y": 1.0,
          "w": 1.0
        },
        {
          "character": "Γ",
          "x": 4.5,
          "y": 1.0,
          "w": 1.0
        },
        {
          "character": "Η",
          "x": 5.5,
          "y": 1.0,
          "w": 1.0
        },
        {
          "character": "Ξ",
          "x": 6.5,
          "y": 1.0,
          "w": 1.0
        },
        {
          "character": "Κ",
          "x": 7.5,
          "y": 1.0,
          "w": 1.0
        },
        {
          "character": "Λ",
          "x": 8.5,
          "y": 1.0,
          "w": 1.0
        },
        {
          "label": "⇧",
          "x": 0.0,
          "y": 2.0,
          "w": 1.5,
          "target": "Main"
        },
        {
          "character": "Ζ",
          "x": 1.5,
          "y": 2.0,
          "w": 1.0
        },
        {
          "character": "Χ",
          "x": 2.5,
          "y": 2.0,
          "w": 1.0
        },
        {
          "character": "Ψ",
          "x": 3.5,
          "y": 2.0,
          "w": 1.0
        },
        {
          "character": "Ω",
          "x": 4.5,
          "y": 2.0,
          "w": 1.0
        },
        {
          "character": "Β",
          "x": 5.5,
          "y": 2.0,
          "w": 1.0
        },
        {
          "character": "Ν",
          "x": 6.5,
          "y": 2.0,
          "w": 1.0
        },
        {
          "character": "Μ",
          "x": 7.5,
          "y": 2.0,
          "w": 1.0
        },
        {
          "label": "⌫",
          "keyval": 65288,
          "x": 8.5,
          "y": 2.0,
          "w": 1.5
        },
        {
          "label": "?123",
          "x": 0.0,
          "y": 3.0,
          "w": 1.5,
          "target": "Numbers"
        },
        {
          "character": ",",
          "x": 1.5,
          "y": 3.0,
          "w": 1.0
        },
        {
          "label": "☺",
          "target": "Emoji",
          "x": 2.5,
          "y": 3.0,
          "w": 1.0
        },
        {
          "character": " ",
          "x": 3.5,
          "y": 3.0,
          "w": 4.0
        },
        {
          "character": ".",
          "x": 7.5,
          "y": 3.0,
          "w": 1.0
        },
        {
          "label": "↵",
          "character": "\n",
          "x": 8.5,
          "y": 3.0,
          "w": 1.5
        }
      ]
    },
    {
      "name": "Numbers",
      "keys": [
        {
          "character": "1",
          "x": 0.0,
          "y": 0.0,
          "w": 1.0
        },
        {
          "character": "2",
          "x": 1.0,
          "y": 0.0,
          "w": 1.0
        },
        {
          "character": "3",
          "x": 2.0,
          "y": 0.0,
          "w": 1.0
        },
        {
          "character": "4",
          "x": 3.0,
          "y": 0.0,
          "w": 1.0
        },
        {
          "character": "5",
          "x": 4.0,
          "y": 0.0,
          "w": 1.0
        },
        {
          "character": "6",
          "x": 5.0,
          "y": 0.0,
          "w": 1.0
        },
        {
          "character": "7",
          "x": 6.0,
          "y": 0.0,
          "w": 1.0
        },
        {
          "character": "8",
          "x": 7.0,
          "y": 0.0,
          "w": 1.0
        },
        {
          "character": "9",
          "x": 8.0,
          "y": 0.0,
          "w": 1.0
        },
        {
          "character": "0",
          "x": 9.0,
          "y": 0.0,
          "w": 1.0
        },
        {
          "character": "@",
          "x": 0.5,
          "y": 1.0,
          "w": 1.0
        },
        {
          "character": "#",
          "x": 1.5,
          "y": 1.0,
          "w": 1.0
        },
        {
          "character": "€",
          "x": 2.5,
          "y": 1.0,
          "w": 1.0
        },
        {
          "character": "%",
          "x": 3.5,
          "y": 1.0,
          "w": 1.0
        },
        {
          "character": "&",
          "x": 4.5,
          "y": 1.0,
          "w": 1.0
        },
        {
          "character": "-",
          "x": 5.5,
          "y": 1.0,
          "w": 1.0
        },
        {
          "character": "+",
          "x": 6.5,
          "y": 1.0,
          "w": 1.0
        },
        {
          "character": "(",
          "x": 7.5,
          "y": 1.0,
          "w": 1.0
        },
        {
          "character": ")",
          "x": 8.5,
          "y": 1.0,
          "w": 1.0
        },
        {
          "label": "=\\<",
          "x": 0.0,
          "y": 2.0,
          "w": 1.5,
          "target": "Special"
        },
        {
          "character": "*",
          "x": 1.5,
          "y": 2.0,
          "w": 1.0
        },
        {
          "character": "\"",
          "x": 2.5,
          "y": 2.0,
          "w": 1.0
        },
        {
          "character": "'",
          "x": 3.5,
          "y": 2.0,
          "w": 1.0
        },
        {
          "character": ":",
          "x": 4.5,
          "y": 2.0,
          "w": 1.0
        },
        {
          "character": ";",
          "x": 5.5,
          "y": 2.0,
          "w": 1.0
        },
        {
          "character": "!",
          "x": 6.5,
          "y": 2.0,
          "w": 1.0
        },
        {
          "character": "?",
          "x": 7.5,
          "y": 2.0,
          "w": 1.0
        },
        {
          "label": "⌫",
          "keyval": 65288,
          "x": 8.5,
          "y": 2.0,
          "w": 1.5
        },
        {
          "label": "ABC",
          "x": 0.0,
          "y": 3.0,
          "w": 1.5,
          "target": "Main"
        },
        {
          "character": "_",
          "x": 1.5,
          "y": 3.0,
          "w": 1.0
        },
        {
          "character": "/",
          "x": 2.5,
          "y": 3.0,
          "w": 1.0
        },
        {
          "character": " ",
          "x": 3.5,
          "y": 3.0,
          "w": 3.0
        },
        {
          "character": ",",
          "x": 6.5,
          "y": 3.0,
          "w": 1.0
        },
        {
          "character": ".",
          "x": 7.5,
          "y": 3.0,
          "w": 1.0
        },
        {
          "label": "↵",
          "character": "\n",
          "x": 8.5,
          "y": 3.0,
          "w": 1.5
        }
      ]
    },
    {
      "name": "Special",
      "keys": [
        {
          "character": "~",
          "x": 0.0,
          "y": 0.0,
          "w": 1.0
        },
        {
          "character": "`",
          "x": 1.0,
          "y": 0.0,
          "w": 1.0
        },
        {
          "character": "|",
          "x": 2.0,
          "y": 0.0,
          "w": 1.0
        },
        {
          "character": "•",
          "x": 3.0,
          "y": 0.0,
          "w": 1.0
        },
        {
          "character": "√",
          "x": 4.0,
          "y": 0.0,
          "w": 1.0
        },
        {
          "character": "Π",
          "x": 5.0,
          "y": 0.0,
          "w": 1.0
        },
        {
          "character": "÷",
          "x": 6.0,
          "y": 0.0,
          "w": 1.0
        },
        {
          "character": "×",
          "x": 7.0,
          "y": 0.0,
          "w": 1.0
        },
        {
          "character": "¶",
          "x": 8.0,
          "y": 0.0,
          "w": 1.0
        },
        {
          "character": "∆",
          "x": 9.0,
          "y": 0.0,
          "w": 1.0
        },
        {
          "character": "£",
          "x": 0.5,
          "y": 1.0,
          "w": 1.0
        },
        {
          "character": "¥",
          "x": 1.5,
          "y": 1.0,
          "w": 1.0
        },
        {
          "character": "$",
          "x": 2.5,
          "y": 1.0,
          "w": 1.0
        },
        {
          "character": "¢",
          "x": 3.5,
          "y": 1.0,
          "w": 1.0
        },
        {
          "character": "^",
          "x": 4.5,
          "y": 1.0,
          "w": 1.0
        },
        {
          "character": "°",
          "x": 5.5,
          "y": 1.0,
          "w": 1.0
        },
        {
          "character": "=",
          "x": 6.5,
          "y": 1.0,
          "w": 1.0
        },
        {
          "character": "{",
          "x": 7.5,
          "y": 1.0,
          "w": 1.0
        },
        {
          "character": "}",
          "x": 8.5,
          "y": 1.0,
          "w": 1.0
        },
        {
          "label": "?123",
          "x": 0.0,
          "y": 2.0,
          "w": 1.5,
          "target": "Numbers"
        },
        {
          "character": "\\",
          "x": 1.5,
          "y": 2.0,
          "w": 1.0
        },
        {
          "character": "©",
          "x": 2.5,
          "y": 2.0,
          "w": 1.0
        },
        {
          "character": "®",
          "x": 3.5,
          "y": 2.0,
          "w": 1.0
        },
        {
          "character": "™",
          "x": 4.5,
          "y": 2.0,
          "w": 1.0
        },
        {
          "character": "℅",
          "x": 5.5,
          "y": 2.0,
          "w": 1.0
        },
        {
          "character": "[",
          "x": 6.5,
          "y": 2.0,
          "w": 1.0
        },
        {
          "character": "]",
          "x": 7.5,
          "y": 2.0,
          "w": 1.0
        },
        {
          "label": "⌫",
          "keyval": 65288,
          "x": 8.5,
          "y": 2.0,
          "w": 1.5
        },
        {
          "label": "ABC",
          "x": 0.0,
          "y": 3.0,
          "w": 1.5,
          "target": "Main"
        },
        {
          "character": "<",
          "x": 1.5,
          "y": 3.0,
          "w": 1.0
        },
        {
          "character": ">",
          "x": 2.5,
          "y": 3.0,
          "w": 1.0
        },
        {
          "character": " ",
          "x": 3.5,
          "y": 3.0,
          "w": 3.0
        },
        {
          "character": ",",
          "x": 6.5,
          "y": 3.0,
          "w": 1.0
        },
        {
          "character": ".",
          "x": 7.5,
          "y": 3.0,
          "w": 1.0
        },
        {
          "label": "↵",
          "character": "\n",
          "x": 8.5,
          "y": 3.0,
          "w": 1.5
        }
      ]
    },
    {
      "name": "Emoji",
      "keys": [
        {
          "character": "😀",
          "x": 0.0,
          "y": 0.0,
          "w": 1.0
        },
        {
          "character": "😃",
          "x": 1.0,
          "y": 0.0,
          "w": 1.0
        },
        {
          "character": "😄",
          "x": 2.0,
          "y": 0.0,
          "w": 1.0
        },
        {
          "character": "😁",
          "x": 3.0,
          "y": 0.0,
          "w": 1.0
        },
        {
          "character": "😆",
          "x": 4.0,
          "y": 0.0,
          "w": 1.0
        },
        {
          "character": "😅",
          "x": 5.0,
          "y": 0.0,
          "w": 1.0
        },
        {
          "character": "🤣",
          "x": 6.0,
          "y": 0.0,
          "w": 1.0
        },
        {
          "character": "😂",
          "x": 7.0,
          "y": 0.0,
          "w": 1.0
        },
        {
          "character": "🙂",
          "x": 8.0,
          "y": 0.0,
          "w": 1.0
        },
        {
          "character": "🙃",
          "x": 9.0,
          "y": 0.0,
          "w": 1.0
        },
        {
          "character": "😉",
          "x": 0.0,
          "y": 1.0,
          "w": 1.0
        },
        {
          "character": "😊",
          "x": 1.0,
          "y": 1.0,
          "w": 1.0
        },
        {
          "character": "😊",
          "x": 2.0,
          "y": 1.0,
          "w": 1.0
        },
        {
          "character": "😇",
          "x": 3.0,
          "y": 1.0,
          "w": 1.0
        },
        {
          "character": "🥰",
          "x": 4.0,
          "y": 1.0,
          "w": 1.0
        },
        {
          "character": "😍",
          "x": 5.0,
          "y": 1.0,
          "w": 1.0
        },
        {
          "character": "🤩",
          "x": 6.0,
          "y": 1.0,
          "w": 1.0
        },
        {
          "character": "😘",
          "x": 7.0,
          "y": 1.0,
          "w": 1.0
        },
        {
          "character": "😗",
          "x": 8.0,
          "y": 1.0,
          "w": 1.0
        },
        {
          "character": "☺",
          "x": 9.0,
          "y": 1.0,
          "w": 1.0
        },
        {
          "character": "😚",
          "x": 0.0,
          "y": 2.0,
          "w": 1.0
        },
        {
          "character": "😙",
          "x": 1.0,
          "y": 2.0,
          "w": 1.0
        },
        {
          "character": "🥲",
          "x": 2.0,
          "y": 2.0,
          "w": 1.0
        },
        {
          "character": "😋",
          "x": 3.0,
          "y": 2.0,
          "w": 1.0
        },
        {
          "character": "😛",
          "x": 4.0,
          "y": 2.0,
          "w": 1.0
        },
        {
          "character": "😜",
          "x": 5.0,
          "y": 2.0,
          "w": 1.0
        },
        {
          "character": "🤪",
          "x": 6.0,
          "y": 2.0,
          "w": 1.0
        },
        {
          "character": "😝",
          "x": 7.0,
          "y": 2.0,
          "w": 1.0
        },
        {
          "character": "🤑",
          "x": 8.0,
          "y": 2.0,
          "w": 1.0
        },
        {
          "character": "🤗",
          "x": 9.0,
          "y": 2.0,
          "w": 1.0
        },
        {
          "label": "ABC",
          "x": 0.0,
          "y": 3.0,
          "w": 1.5,
          "target": "Main"
        },
        {
          "character": "🤭",
          "x": 1.5,
          "y": 3.0,
          "w": 1.0
        },
        {
          "character": "🤫",
          "x": 2.5,
          "y": 3.0,
          "w": 1.0
        },
        {
          "character": "🤔",
          "x": 3.5,
          "y": 3.0,
          "w": 1.0
        },
        {
          "character": "🤐",
          "x": 4.5,
          "y": 3.0,
          "w": 1.0
        },
        {
          "character": "🤨",
          "x": 5.5,
          "y": 3.0,
          "w": 1.0
        },
        {
          "character": "😐",
          "x": 6.5,
          "y": 3.0,
          "w": 1.0
        },
        {
          "character": "😑",
          "x": 7.5,
          "y": 3.0,
          "w": 1.0
        },
        {
          "label": "↵",
          "character": "\n",
          "x": 8.5,
          "y": 3.0,
          "w": 1.5
        }
      ]
    }
  ]
}